id,_fivetran_deleted,_fivetran_synced,created_at,name,updated_at,url
360008426314,FALSE,2021-01-19 20:08:24.256,2020-02-04 00:03:11,Non-Support - (Billing Tickets),2020-02-04 00:40:57,https://zendesk.com/api/v2/groups/360008426314.json
360013670454,FALSE,2021-01-19 20:08:24.256,2020-09-01 10:16:50,Assignment Group 7,2020-09-01 10:16:50,https://zendesk.com/api/v2/groups/360013670454.json
360014827554,FALSE,2021-01-19 20:08:24.256,2020-10-07 21:53:42,Information Technology,2020-10-07 21:57:54,https://zendesk.com/api/v2/groups/360014827554.json
360008418973,FALSE,2021-01-19 20:08:24.256,2020-02-04 00:41:49,Non-Support - (Prospect Tickets),2020-02-04 00:41:49,https://zendesk.com/api/v2/groups/360008418973.json
360013670414,FALSE,2021-01-19 20:08:24.255,2020-09-01 10:15:17,Assignment Group 4,2020-09-01 10:15:17,https://zendesk.com/api/v2/groups/360013670414.json
360013656353,FALSE,2021-01-19 20:08:24.255,2020-09-01 10:15:55,Assignment Group 5,2020-09-01 10:15:55,https://zendesk.com/api/v2/groups/360013656353.json
360013656373,FALSE,2021-01-19 20:08:24.255,2020-09-01 10:16:23,Assignment Group 6,2020-09-01 10:16:23,https://zendesk.com/api/v2/groups/360013656373.json
360013670374,FALSE,2021-01-19 20:08:24.254,2020-09-01 10:14:39,Assignment Group 3,2020-09-01 10:14:39,https://zendesk.com/api/v2/groups/360013670374.json