end_time,id,start_time,_fivetran_deleted,_fivetran_synced,end_time_utc,name,start_time_utc,time_zone,created_at
8400,360000310393,7680,FALSE,2021-01-19 20:08:37.690,8820,SupportCA,8100,Pacific Time (US & Canada),2019-11-18 20:23:34
5520,360000310393,4800,FALSE,2021-01-19 20:08:37.690,5940,SupportCA,5220,Pacific Time (US & Canada),2019-11-18 20:23:34
6960,360000310393,6240,FALSE,2021-01-19 20:08:37.690,7380,SupportCA,6660,Pacific Time (US & Canada),2019-11-18 20:23:34
2640,360000310393,1920,FALSE,2021-01-19 20:08:37.689,3060,SupportCA,2340,Pacific Time (US & Canada),2019-11-18 20:23:34
4080,360000310393,3360,FALSE,2021-01-19 20:08:37.690,4500,SupportCA,3780,Pacific Time (US & Canada),2019-11-18 20:23:34