tag,ticket_id,_fivetran_synced
customer,123,2020-03-05 04:50:07.657
customer,123,2020-03-05 04:50:07.657
customer,123,2020-03-05 04:50:07.657
prospect,123,2020-03-05 04:50:07.657
customer,455,2020-03-05 04:50:30.253
customer,455,2020-03-05 04:50:30.253
prospect,455,2020-03-05 04:50:30.253
connector,789,2020-03-05 04:54:18.030
prospect,1011,2020-03-05 04:54:18.030
customer,1012,2020-03-05 04:54:31.717